{"failedCount":0,"prefixedPath":"src\/test\/java\/test.feature","packageQualifiedName":"src.test.java.test","loopIndex":-1,"relativePath":"src\/test\/java\/test.feature","scenarioResults":[{"sectionIndex":1,"stepResults":[{"result":{"nanos":99766400,"millis":99.7664,"status":"passed"},"step":{"line":9,"prefix":"*","index":0,"text":"def query = {status:'active', gender : 'male'}"}},{"result":{"nanos":23322700,"millis":23.3227,"status":"passed"},"step":{"line":10,"prefix":"Given","index":1,"text":"url baseUrl + '\/public\/v1\/users'"}},{"result":{"nanos":26082400,"millis":26.0824,"status":"passed"},"step":{"line":11,"prefix":"And","index":2,"text":"params query"}},{"result":{"nanos":2739316500,"millis":2739.3165,"status":"passed"},"step":{"line":12,"prefix":"When","index":3,"text":"method GET"},"stepLog":"17:01:43.819 request:\n1 > GET https:\/\/gorest.co.in\/public\/v1\/users?gender=male&status=active\n1 > Host: gorest.co.in\n1 > Connection: Keep-Alive\n1 > User-Agent: Apache-HttpClient\/4.5.13 (Java\/1.8.0_281)\n1 > Accept-Encoding: gzip,deflate\n\n\n17:01:44.843 response time in milliseconds: 1020\n1 < 200\n1 < Date: Mon, 18 Jul 2022 13:52:32 GMT\n1 < Content-Type: application\/json; charset=utf-8\n1 < Transfer-Encoding: chunked\n1 < Connection: keep-alive\n1 < Vary: Accept-Encoding\n1 < Vary: Origin\n1 < X-Frame-Options: SAMEORIGIN\n1 < X-XSS-Protection: 0\n1 < X-Content-Type-Options: nosniff\n1 < X-Download-Options: noopen\n1 < X-Permitted-Cross-Domain-Policies: none\n1 < Referrer-Policy: strict-origin-when-cross-origin\n1 < ETag: W\/\"314bca96da362448ebc6db877b95dca3\"\n1 < Cache-Control: max-age=0, private, must-revalidate\n1 < X-Request-Id: 51354527-e83e-4b5a-9c70-c93c5f908dc9\n1 < X-Runtime: 0.006715\n1 < Strict-Transport-Security: max-age=63072000; includeSubDomains\n1 < CF-Cache-Status: DYNAMIC\n1 < Expect-CT: max-age=604800, report-uri=\"https:\/\/report-uri.cloudflare.com\/cdn-cgi\/beacon\/expect-ct\"\n1 < Report-To: {\"endpoints\":[{\"url\":\"https:\\\/\\\/a.nel.cloudflare.com\\\/report\\\/v3?s=4dCqsfippN9RmcQ18PFfOdS7FzwqiO5Ln816g%2B1qvafN%2Bet4T0Kjw%2F0GSueUt5E01xd%2FwQ%2FIPyzU2OHGdzOs%2B3haQIT1uriAlCY2X7B1MCvAhrwFzDDivmay5tWE%2BqU%3D\"}],\"group\":\"cf-nel\",\"max_age\":604800}\n1 < NEL: {\"success_fraction\":0,\"report_to\":\"cf-nel\",\"max_age\":604800}\n1 < Server: cloudflare\n1 < CF-RAY: 72cbb2cacbe824b4-KBP\n1 < alt-svc: h3=\":443\"; ma=86400, h3-29=\":443\"; ma=86400\n{\"meta\":{\"pagination\":{\"total\":625,\"pages\":63,\"page\":1,\"limit\":10,\"links\":{\"previous\":null,\"current\":\"https:\/\/gorest.co.in\/public\/v1\/users?page=1\",\"next\":\"https:\/\/gorest.co.in\/public\/v1\/users?page=2\"}}},\"data\":[{\"id\":2506,\"name\":\"Pres. Aadrika Kocchar\",\"email\":\"pres_kocchar_aadrika@kunze-lemke.name\",\"gender\":\"male\",\"status\":\"active\"},{\"id\":2502,\"name\":\"Prof. Jay Arora\",\"email\":\"jay_arora_prof@cruickshank.io\",\"gender\":\"male\",\"status\":\"active\"},{\"id\":2495,\"name\":\"Anagh Patil\",\"email\":\"patil_anagh@reinger.info\",\"gender\":\"male\",\"status\":\"active\"},{\"id\":2492,\"name\":\"Gov. Bhadrak Iyengar\",\"email\":\"gov_iyengar_bhadrak@murazik.info\",\"gender\":\"male\",\"status\":\"active\"},{\"id\":2488,\"name\":\"Vasudha Prajapat Ret.\",\"email\":\"vasudha_ret_prajapat@oberbrunner.name\",\"gender\":\"male\",\"status\":\"active\"},{\"id\":2487,\"name\":\"Vaijayanti Gowda\",\"email\":\"gowda_vaijayanti@shanahan-dibbert.name\",\"gender\":\"male\",\"status\":\"active\"},{\"id\":2479,\"name\":\"Jyoti Guha DO\",\"email\":\"guha_jyoti_do@steuber.info\",\"gender\":\"male\",\"status\":\"active\"},{\"id\":2475,\"name\":\"Bhanumati Marar\",\"email\":\"bhanumati_marar@hand.net\",\"gender\":\"male\",\"status\":\"active\"},{\"id\":2474,\"name\":\"Deeptimoy Patil\",\"email\":\"deeptimoy_patil@murazik-dach.co\",\"gender\":\"male\",\"status\":\"active\"},{\"id\":2472,\"name\":\"Pramila Jain\",\"email\":\"pramila_jain@satterfield-gislason.co\",\"gender\":\"male\",\"status\":\"active\"}]}\n\n"},{"result":{"nanos":161000,"millis":0.161,"status":"passed"},"step":{"line":13,"prefix":"Then","index":4,"text":"status 200"}},{"result":{"nanos":55059100,"millis":55.0591,"status":"passed"},"step":{"line":14,"prefix":"*","index":5,"text":"print response"},"stepLog":"17:01:44.903 [print] {\n  \"meta\": {\n    \"pagination\": {\n      \"total\": 625,\n      \"pages\": 63,\n      \"page\": 1,\n      \"limit\": 10,\n      \"links\": {\n        \"previous\": null,\n        \"current\": \"https:\/\/gorest.co.in\/public\/v1\/users?page=1\",\n        \"next\": \"https:\/\/gorest.co.in\/public\/v1\/users?page=2\"\n      }\n    }\n  },\n  \"data\": [\n    {\n      \"id\": 2506,\n      \"name\": \"Pres. Aadrika Kocchar\",\n      \"email\": \"pres_kocchar_aadrika@kunze-lemke.name\",\n      \"gender\": \"male\",\n      \"status\": \"active\"\n    },\n    {\n      \"id\": 2502,\n      \"name\": \"Prof. Jay Arora\",\n      \"email\": \"jay_arora_prof@cruickshank.io\",\n      \"gender\": \"male\",\n      \"status\": \"active\"\n    },\n    {\n      \"id\": 2495,\n      \"name\": \"Anagh Patil\",\n      \"email\": \"patil_anagh@reinger.info\",\n      \"gender\": \"male\",\n      \"status\": \"active\"\n    },\n    {\n      \"id\": 2492,\n      \"name\": \"Gov. Bhadrak Iyengar\",\n      \"email\": \"gov_iyengar_bhadrak@murazik.info\",\n      \"gender\": \"male\",\n      \"status\": \"active\"\n    },\n    {\n      \"id\": 2488,\n      \"name\": \"Vasudha Prajapat Ret.\",\n      \"email\": \"vasudha_ret_prajapat@oberbrunner.name\",\n      \"gender\": \"male\",\n      \"status\": \"active\"\n    },\n    {\n      \"id\": 2487,\n      \"name\": \"Vaijayanti Gowda\",\n      \"email\": \"gowda_vaijayanti@shanahan-dibbert.name\",\n      \"gender\": \"male\",\n      \"status\": \"active\"\n    },\n    {\n      \"id\": 2479,\n      \"name\": \"Jyoti Guha DO\",\n      \"email\": \"guha_jyoti_do@steuber.info\",\n      \"gender\": \"male\",\n      \"status\": \"active\"\n    },\n    {\n      \"id\": 2475,\n      \"name\": \"Bhanumati Marar\",\n      \"email\": \"bhanumati_marar@hand.net\",\n      \"gender\": \"male\",\n      \"status\": \"active\"\n    },\n    {\n      \"id\": 2474,\n      \"name\": \"Deeptimoy Patil\",\n      \"email\": \"deeptimoy_patil@murazik-dach.co\",\n      \"gender\": \"male\",\n      \"status\": \"active\"\n    },\n    {\n      \"id\": 2472,\n      \"name\": \"Pramila Jain\",\n      \"email\": \"pramila_jain@satterfield-gislason.co\",\n      \"gender\": \"male\",\n      \"status\": \"active\"\n    }\n  ]\n}\n \n"}],"executorName":"main","line":8,"name":"get all user","description":"","durationMillis":2943.7081,"startTime":1658152901752,"failed":false,"refId":"[2:8]","endTime":1658152904904,"exampleIndex":-1}],"callDepth":0,"name":"GET API feature","description":"","resultDate":"2022-07-18 05:01:44 PM","durationMillis":2943.7081,"passedCount":1}