{"failedCount":0,"prefixedPath":"src\/test\/java\/test.feature","packageQualifiedName":"src.test.java.test","loopIndex":-1,"relativePath":"src\/test\/java\/test.feature","scenarioResults":[{"sectionIndex":1,"stepResults":[{"result":{"nanos":56365400,"millis":56.3654,"status":"passed"},"step":{"line":9,"prefix":"*","index":0,"text":"def query = {status:'active'}"}},{"result":{"nanos":17468400,"millis":17.4684,"status":"passed"},"step":{"line":10,"prefix":"Given","index":1,"text":"url baseUrl + '\/public\/v1\/users'"}},{"result":{"nanos":9201100,"millis":9.2011,"status":"passed"},"step":{"line":11,"prefix":"And","index":2,"text":"params query"}},{"result":{"nanos":2383160000,"millis":2383.16,"status":"passed"},"step":{"line":12,"prefix":"When","index":3,"text":"method GET"},"stepLog":"17:00:43.668 request:\n1 > GET https:\/\/gorest.co.in\/public\/v1\/users?status=active\n1 > Host: gorest.co.in\n1 > Connection: Keep-Alive\n1 > User-Agent: Apache-HttpClient\/4.5.13 (Java\/1.8.0_281)\n1 > Accept-Encoding: gzip,deflate\n\n\n17:00:44.783 response time in milliseconds: 1112\n1 < 200\n1 < Date: Mon, 18 Jul 2022 13:51:32 GMT\n1 < Content-Type: application\/json; charset=utf-8\n1 < Transfer-Encoding: chunked\n1 < Connection: keep-alive\n1 < Vary: Accept-Encoding\n1 < Vary: Origin\n1 < X-Frame-Options: SAMEORIGIN\n1 < X-XSS-Protection: 0\n1 < X-Content-Type-Options: nosniff\n1 < X-Download-Options: noopen\n1 < X-Permitted-Cross-Domain-Policies: none\n1 < Referrer-Policy: strict-origin-when-cross-origin\n1 < ETag: W\/\"e5e87a7718890eabdd2ca33f60a179fc\"\n1 < Cache-Control: max-age=0, private, must-revalidate\n1 < X-Request-Id: 107276ec-8143-4176-93c6-7eb9cc8c47b5\n1 < X-Runtime: 0.007259\n1 < Strict-Transport-Security: max-age=63072000; includeSubDomains\n1 < CF-Cache-Status: DYNAMIC\n1 < Expect-CT: max-age=604800, report-uri=\"https:\/\/report-uri.cloudflare.com\/cdn-cgi\/beacon\/expect-ct\"\n1 < Report-To: {\"endpoints\":[{\"url\":\"https:\\\/\\\/a.nel.cloudflare.com\\\/report\\\/v3?s=7QySEaZDnRZhxPHd%2BulLQ0ULMqi0E%2FhoUT1g5sCXWU4giP5zpnkMb01OVV69keAlulb7f20RbbPQdiVyhCNLz1qGgeWojht7kb9xBKDm4Zp3BygHGxDtm%2BASJJ9r68E%3D\"}],\"group\":\"cf-nel\",\"max_age\":604800}\n1 < NEL: {\"success_fraction\":0,\"report_to\":\"cf-nel\",\"max_age\":604800}\n1 < Server: cloudflare\n1 < CF-RAY: 72cbb1526d942d67-KBP\n1 < alt-svc: h3=\":443\"; ma=86400, h3-29=\":443\"; ma=86400\n{\"meta\":{\"pagination\":{\"total\":1225,\"pages\":123,\"page\":1,\"limit\":10,\"links\":{\"previous\":null,\"current\":\"https:\/\/gorest.co.in\/public\/v1\/users?page=1\",\"next\":\"https:\/\/gorest.co.in\/public\/v1\/users?page=2\"}}},\"data\":[{\"id\":2508,\"name\":\"Girish Patil\",\"email\":\"girish_patil@corwin.info\",\"gender\":\"female\",\"status\":\"active\"},{\"id\":2506,\"name\":\"Pres. Aadrika Kocchar\",\"email\":\"pres_kocchar_aadrika@kunze-lemke.name\",\"gender\":\"male\",\"status\":\"active\"},{\"id\":2502,\"name\":\"Prof. Jay Arora\",\"email\":\"jay_arora_prof@cruickshank.io\",\"gender\":\"male\",\"status\":\"active\"},{\"id\":2501,\"name\":\"Devasree Singh\",\"email\":\"devasree_singh@wolff.name\",\"gender\":\"female\",\"status\":\"active\"},{\"id\":2500,\"name\":\"Vidur Dubashi\",\"email\":\"dubashi_vidur@turcotte.info\",\"gender\":\"female\",\"status\":\"active\"},{\"id\":2499,\"name\":\"Devasree Mehra DC\",\"email\":\"mehra_devasree_dc@hettinger-yost.biz\",\"gender\":\"female\",\"status\":\"active\"},{\"id\":2496,\"name\":\"Chidananda Patil DDS\",\"email\":\"dds_chidananda_patil@bahringer.co\",\"gender\":\"female\",\"status\":\"active\"},{\"id\":2495,\"name\":\"Anagh Patil\",\"email\":\"patil_anagh@reinger.info\",\"gender\":\"male\",\"status\":\"active\"},{\"id\":2494,\"name\":\"Aamod Khatri\",\"email\":\"aamod_khatri@dach.io\",\"gender\":\"female\",\"status\":\"active\"},{\"id\":2492,\"name\":\"Gov. Bhadrak Iyengar\",\"email\":\"gov_iyengar_bhadrak@murazik.info\",\"gender\":\"male\",\"status\":\"active\"}]}\n\n"},{"result":{"nanos":17800,"millis":0.0178,"status":"passed"},"step":{"line":13,"prefix":"Then","index":4,"text":"status 200"}},{"result":{"nanos":60685300,"millis":60.6853,"status":"passed"},"step":{"line":14,"prefix":"*","index":5,"text":"print response"},"stepLog":"17:00:44.848 [print] {\n  \"meta\": {\n    \"pagination\": {\n      \"total\": 1225,\n      \"pages\": 123,\n      \"page\": 1,\n      \"limit\": 10,\n      \"links\": {\n        \"previous\": null,\n        \"current\": \"https:\/\/gorest.co.in\/public\/v1\/users?page=1\",\n        \"next\": \"https:\/\/gorest.co.in\/public\/v1\/users?page=2\"\n      }\n    }\n  },\n  \"data\": [\n    {\n      \"id\": 2508,\n      \"name\": \"Girish Patil\",\n      \"email\": \"girish_patil@corwin.info\",\n      \"gender\": \"female\",\n      \"status\": \"active\"\n    },\n    {\n      \"id\": 2506,\n      \"name\": \"Pres. Aadrika Kocchar\",\n      \"email\": \"pres_kocchar_aadrika@kunze-lemke.name\",\n      \"gender\": \"male\",\n      \"status\": \"active\"\n    },\n    {\n      \"id\": 2502,\n      \"name\": \"Prof. Jay Arora\",\n      \"email\": \"jay_arora_prof@cruickshank.io\",\n      \"gender\": \"male\",\n      \"status\": \"active\"\n    },\n    {\n      \"id\": 2501,\n      \"name\": \"Devasree Singh\",\n      \"email\": \"devasree_singh@wolff.name\",\n      \"gender\": \"female\",\n      \"status\": \"active\"\n    },\n    {\n      \"id\": 2500,\n      \"name\": \"Vidur Dubashi\",\n      \"email\": \"dubashi_vidur@turcotte.info\",\n      \"gender\": \"female\",\n      \"status\": \"active\"\n    },\n    {\n      \"id\": 2499,\n      \"name\": \"Devasree Mehra DC\",\n      \"email\": \"mehra_devasree_dc@hettinger-yost.biz\",\n      \"gender\": \"female\",\n      \"status\": \"active\"\n    },\n    {\n      \"id\": 2496,\n      \"name\": \"Chidananda Patil DDS\",\n      \"email\": \"dds_chidananda_patil@bahringer.co\",\n      \"gender\": \"female\",\n      \"status\": \"active\"\n    },\n    {\n      \"id\": 2495,\n      \"name\": \"Anagh Patil\",\n      \"email\": \"patil_anagh@reinger.info\",\n      \"gender\": \"male\",\n      \"status\": \"active\"\n    },\n    {\n      \"id\": 2494,\n      \"name\": \"Aamod Khatri\",\n      \"email\": \"aamod_khatri@dach.io\",\n      \"gender\": \"female\",\n      \"status\": \"active\"\n    },\n    {\n      \"id\": 2492,\n      \"name\": \"Gov. Bhadrak Iyengar\",\n      \"email\": \"gov_iyengar_bhadrak@murazik.info\",\n      \"gender\": \"male\",\n      \"status\": \"active\"\n    }\n  ]\n}\n \n"}],"executorName":"main","line":8,"name":"get all user","description":"","durationMillis":2526.898,"startTime":1658152842136,"failed":false,"refId":"[2:8]","endTime":1658152844848,"exampleIndex":-1}],"callDepth":0,"name":"GET API feature","description":"","resultDate":"2022-07-18 05:00:44 PM","durationMillis":2526.898,"passedCount":1}