{"failedCount":0,"prefixedPath":"src\/test\/java\/test.feature","packageQualifiedName":"src.test.java.test","loopIndex":-1,"relativePath":"src\/test\/java\/test.feature","scenarioResults":[{"sectionIndex":1,"stepResults":[{"result":{"nanos":56453700,"millis":56.4537,"status":"passed"},"step":{"line":9,"prefix":"*","index":0,"text":"def query = {status:'active'}"}},{"result":{"nanos":25573800,"millis":25.5738,"status":"passed"},"step":{"line":10,"prefix":"Given","index":1,"text":"url baseUrl + '\/public\/v1\/users'"}},{"result":{"nanos":14143600,"millis":14.1436,"status":"passed"},"step":{"line":11,"prefix":"And","index":2,"text":"params query"}},{"result":{"nanos":2385241800,"millis":2385.2418,"status":"passed"},"step":{"line":12,"prefix":"When","index":3,"text":"method GET"},"stepLog":"17:06:31.539 request:\n1 > GET https:\/\/gorest.co.in\/public\/v1\/users?status=active\n1 > Host: gorest.co.in\n1 > Connection: Keep-Alive\n1 > User-Agent: Apache-HttpClient\/4.5.13 (Java\/1.8.0_281)\n1 > Accept-Encoding: gzip,deflate\n\n\n17:06:32.542 response time in milliseconds: 1000\n1 < 200\n1 < Date: Mon, 18 Jul 2022 13:57:20 GMT\n1 < Content-Type: application\/json; charset=utf-8\n1 < Transfer-Encoding: chunked\n1 < Connection: keep-alive\n1 < Vary: Accept-Encoding\n1 < Vary: Origin\n1 < X-Frame-Options: SAMEORIGIN\n1 < X-XSS-Protection: 0\n1 < X-Content-Type-Options: nosniff\n1 < X-Download-Options: noopen\n1 < X-Permitted-Cross-Domain-Policies: none\n1 < Referrer-Policy: strict-origin-when-cross-origin\n1 < ETag: W\/\"bfdcec24419b928cd44b5ca78337f44a\"\n1 < Cache-Control: max-age=0, private, must-revalidate\n1 < X-Request-Id: 11d58ed1-603d-45ed-8134-74d25058c04a\n1 < X-Runtime: 0.006656\n1 < Strict-Transport-Security: max-age=63072000; includeSubDomains\n1 < CF-Cache-Status: DYNAMIC\n1 < Expect-CT: max-age=604800, report-uri=\"https:\/\/report-uri.cloudflare.com\/cdn-cgi\/beacon\/expect-ct\"\n1 < Report-To: {\"endpoints\":[{\"url\":\"https:\\\/\\\/a.nel.cloudflare.com\\\/report\\\/v3?s=AKbBgBEsX8lhvUo7HLI32IsbqyEkyrKoi%2Fpj0VRLZIUmfdbdcN3w508d%2FQmhgHbu7VHg%2BeEe072Z6dTAVUibHGvoPtYBOo5haMTsJ7kRzL4jQWKdcYfLOdOWz8ibbfk%3D\"}],\"group\":\"cf-nel\",\"max_age\":604800}\n1 < NEL: {\"success_fraction\":0,\"report_to\":\"cf-nel\",\"max_age\":604800}\n1 < Server: cloudflare\n1 < CF-RAY: 72cbb9d0e8896852-BUD\n1 < alt-svc: h3=\":443\"; ma=86400, h3-29=\":443\"; ma=86400\n{\"meta\":{\"pagination\":{\"total\":1222,\"pages\":123,\"page\":1,\"limit\":10,\"links\":{\"previous\":null,\"current\":\"https:\/\/gorest.co.in\/public\/v1\/users?page=1\",\"next\":\"https:\/\/gorest.co.in\/public\/v1\/users?page=2\"}}},\"data\":[{\"id\":2506,\"name\":\"Pres. Aadrika Kocchar\",\"email\":\"pres_kocchar_aadrika@kunze-lemke.name\",\"gender\":\"male\",\"status\":\"active\"},{\"id\":2500,\"name\":\"Vidur Dubashi\",\"email\":\"dubashi_vidur@turcotte.info\",\"gender\":\"female\",\"status\":\"active\"},{\"id\":2499,\"name\":\"Devasree Mehra DC\",\"email\":\"mehra_devasree_dc@hettinger-yost.biz\",\"gender\":\"female\",\"status\":\"active\"},{\"id\":2496,\"name\":\"Chidananda Patil DDS\",\"email\":\"dds_chidananda_patil@bahringer.co\",\"gender\":\"female\",\"status\":\"active\"},{\"id\":2495,\"name\":\"Anagh Patil\",\"email\":\"patil_anagh@reinger.info\",\"gender\":\"male\",\"status\":\"active\"},{\"id\":2494,\"name\":\"Aamod Khatri\",\"email\":\"aamod_khatri@dach.io\",\"gender\":\"female\",\"status\":\"active\"},{\"id\":2492,\"name\":\"Gov. Bhadrak Iyengar\",\"email\":\"gov_iyengar_bhadrak@murazik.info\",\"gender\":\"male\",\"status\":\"active\"},{\"id\":2488,\"name\":\"Vasudha Prajapat Ret.\",\"email\":\"vasudha_ret_prajapat@oberbrunner.name\",\"gender\":\"male\",\"status\":\"active\"},{\"id\":2487,\"name\":\"Vaijayanti Gowda\",\"email\":\"gowda_vaijayanti@shanahan-dibbert.name\",\"gender\":\"male\",\"status\":\"active\"},{\"id\":2486,\"name\":\"Draupadi Arora\",\"email\":\"draupadi_arora@emmerich.org\",\"gender\":\"female\",\"status\":\"active\"}]}\n\n"},{"result":{"nanos":18300,"millis":0.0183,"status":"passed"},"step":{"line":13,"prefix":"Then","index":4,"text":"status 200"}},{"result":{"nanos":237000,"millis":0.237,"status":"passed"},"step":{"line":14,"prefix":"*","index":5,"text":"def jsonResponse = response"}},{"result":{"nanos":50644600,"millis":50.6446,"status":"passed"},"step":{"line":15,"prefix":"*","index":6,"text":"print response"},"stepLog":"17:06:32.598 [print] {\n  \"meta\": {\n    \"pagination\": {\n      \"total\": 1222,\n      \"pages\": 123,\n      \"page\": 1,\n      \"limit\": 10,\n      \"links\": {\n        \"previous\": null,\n        \"current\": \"https:\/\/gorest.co.in\/public\/v1\/users?page=1\",\n        \"next\": \"https:\/\/gorest.co.in\/public\/v1\/users?page=2\"\n      }\n    }\n  },\n  \"data\": [\n    {\n      \"id\": 2506,\n      \"name\": \"Pres. Aadrika Kocchar\",\n      \"email\": \"pres_kocchar_aadrika@kunze-lemke.name\",\n      \"gender\": \"male\",\n      \"status\": \"active\"\n    },\n    {\n      \"id\": 2500,\n      \"name\": \"Vidur Dubashi\",\n      \"email\": \"dubashi_vidur@turcotte.info\",\n      \"gender\": \"female\",\n      \"status\": \"active\"\n    },\n    {\n      \"id\": 2499,\n      \"name\": \"Devasree Mehra DC\",\n      \"email\": \"mehra_devasree_dc@hettinger-yost.biz\",\n      \"gender\": \"female\",\n      \"status\": \"active\"\n    },\n    {\n      \"id\": 2496,\n      \"name\": \"Chidananda Patil DDS\",\n      \"email\": \"dds_chidananda_patil@bahringer.co\",\n      \"gender\": \"female\",\n      \"status\": \"active\"\n    },\n    {\n      \"id\": 2495,\n      \"name\": \"Anagh Patil\",\n      \"email\": \"patil_anagh@reinger.info\",\n      \"gender\": \"male\",\n      \"status\": \"active\"\n    },\n    {\n      \"id\": 2494,\n      \"name\": \"Aamod Khatri\",\n      \"email\": \"aamod_khatri@dach.io\",\n      \"gender\": \"female\",\n      \"status\": \"active\"\n    },\n    {\n      \"id\": 2492,\n      \"name\": \"Gov. Bhadrak Iyengar\",\n      \"email\": \"gov_iyengar_bhadrak@murazik.info\",\n      \"gender\": \"male\",\n      \"status\": \"active\"\n    },\n    {\n      \"id\": 2488,\n      \"name\": \"Vasudha Prajapat Ret.\",\n      \"email\": \"vasudha_ret_prajapat@oberbrunner.name\",\n      \"gender\": \"male\",\n      \"status\": \"active\"\n    },\n    {\n      \"id\": 2487,\n      \"name\": \"Vaijayanti Gowda\",\n      \"email\": \"gowda_vaijayanti@shanahan-dibbert.name\",\n      \"gender\": \"male\",\n      \"status\": \"active\"\n    },\n    {\n      \"id\": 2486,\n      \"name\": \"Draupadi Arora\",\n      \"email\": \"draupadi_arora@emmerich.org\",\n      \"gender\": \"female\",\n      \"status\": \"active\"\n    }\n  ]\n}\n \n"},{"result":{"nanos":3734100,"millis":3.7341,"status":"passed"},"step":{"line":16,"prefix":"*","index":7,"text":"def userCount = jsonResponse.data.length"}},{"result":{"nanos":1050500,"millis":1.0505,"status":"passed"},"step":{"line":17,"prefix":"*","index":8,"text":"print userCount"},"stepLog":"17:06:32.603 [print] 10 \n"},{"result":{"nanos":18962100,"millis":18.9621,"status":"passed"},"step":{"line":18,"prefix":"*","index":9,"text":"match  userCount == 10"}}],"executorName":"main","line":8,"name":"get all user","description":"","durationMillis":2556.0595,"startTime":1658153189860,"failed":false,"refId":"[2:8]","endTime":1658153192623,"exampleIndex":-1}],"callDepth":0,"name":"GET API feature","description":"","resultDate":"2022-07-18 05:06:32 PM","durationMillis":2556.0595,"passedCount":1}